com\kallsony\ms\provider\proveedor01\utils\Utils.class
com\kallsony\ms\provider\proveedor01\service\ProviderService.class
com\kallsony\ms\provider\proveedor01\service\ProviderServiceImpl$1.class
com\kallsony\ms\provider\proveedor01\models\externals\Data.class
com\kallsony\ms\provider\proveedor01\models\externals\Product.class
com\kallsony\ms\provider\proveedor01\controller\ProviderController.class
com\kallsony\ms\provider\proveedor01\models\externals\ResponseCreateOrderProvider.class
com\kallsony\ms\provider\proveedor01\models\Product.class
com\kallsony\ms\provider\proveedor01\models\ResponseCreateOrderKs.class
com\kallsony\ms\provider\proveedor01\models\externals\ResponseListProductsProvider.class
com\kallsony\ms\provider\proveedor01\models\externals\RequestCreateOrderProvider.class
com\kallsony\ms\provider\proveedor01\models\RequestCreateOrderKs.class
com\kallsony\ms\provider\proveedor01\Application.class
com\kallsony\ms\provider\proveedor01\models\externals\CustomURL.class
com\kallsony\ms\provider\proveedor01\models\ResponseListProducts.class
com\kallsony\ms\provider\proveedor01\mapper\MapperRequestOrderToProvider.class
com\kallsony\ms\provider\proveedor01\service\ProviderServiceImpl.class
com\kallsony\ms\provider\proveedor01\mapper\MapperListProductsToBusisnessObject.class
com\kallsony\ms\provider\proveedor01\mapper\MapperResponseOrderToBusinessObject.class
